trad_othmani|الرسم العثماني|ar|IMAGE|https://gitlab.com/redabourebaba/quran_data/-/raw/main/pages/pages.tar.gz
trad_tafseer_moyaser|التفسير الميسر|ar|TEXT|https://gitlab.com/redabourebaba/quran_data/-/raw/main/traductions/trad_tafseer_moyaser.csv.zip
trad_english_rwwad|English Translation - Rowwad Translation Center|en|TEXT|https://gitlab.com/redabourebaba/quran_data/-/raw/main/traductions/trad_english_rwwad.csv.zip
trad_english_saheeh|English Translation - Saheeh International|en|TEXT|https://gitlab.com/redabourebaba/quran_data/-/raw/main/traductions/trad_english_saheeh.csv.zip
trad_english_hilali_khan|English Translation - Hilali and Khan|en|TEXT|https://gitlab.com/redabourebaba/quran_data/-/raw/main/traductions/trad_english_hilali_khan.csv.zip
trad_french_montada|French Translation - Noor International Center|fr|TEXT|https://gitlab.com/redabourebaba/quran_data/-/raw/main/traductions/trad_french_montada.csv.zip
trad_french_rashid|French Translation - Rashid Maash|fr|TEXT|https://gitlab.com/redabourebaba/quran_data/-/raw/main/traductions/trad_french_rashid.csv.zip
trad_french_hameedullah|French Translation - Muhammad Hamidullah|fr|TEXT|https://gitlab.com/redabourebaba/quran_data/-/raw/main/traductions/trad_french_hameedullah.csv.zip
trad_spanish_montada_eu|Spanish Translation - Noor International Center|es|TEXT|https://gitlab.com/redabourebaba/quran_data/-/raw/main/traductions/trad_spanish_montada_eu.csv.zip
trad_spanish_garcia|Spanish Translation - Isa Garcia|es|TEXT|https://gitlab.com/redabourebaba/quran_data/-/raw/main/traductions/trad_spanish_garcia.csv.zip
trad_spanish_montada_latin|Spanish Translation (Latin America) - Noor International|es|TEXT|https://gitlab.com/redabourebaba/quran_data/-/raw/main/traductions/trad_spanish_montada_latin.csv.zip
trad_portuguese_nasr|Portuguese Translation - Helmy Nasr|pt|TEXT|https://gitlab.com/redabourebaba/quran_data/-/raw/main/traductions/trad_portuguese_nasr.csv.zip
trad_german_bubenheim|German Translation - Bubenheim|de|TEXT|https://gitlab.com/redabourebaba/quran_data/-/raw/main/traductions/trad_german_bubenheim.csv.zip
trad_turkish_shaban|Turkish translation - Shaaban Britsh|tr|TEXT|https://gitlab.com/redabourebaba/quran_data/-/raw/main/traductions/trad_turkish_shaban.csv.zip
trad_turkish_rwwad|Turkish translation - Rowwad Tanslation Center|tr|TEXT|https://gitlab.com/redabourebaba/quran_data/-/raw/main/traductions/trad_turkish_rwwad.csv.zip
trad_turkish_shahin|Turkish Translation - Ali Ozek|tr|TEXT|https://gitlab.com/redabourebaba/quran_data/-/raw/main/traductions/trad_turkish_shahin.csv.zip
trad_azeri_musayev|Azerbaijani translation - Ali Khan Mosaiv|az|TEXT|https://gitlab.com/redabourebaba/quran_data/-/raw/main/traductions/trad_azeri_musayev.csv.zip
trad_albanian_nahi|Albanian Translation - Hasan Nahi|sq|TEXT|https://gitlab.com/redabourebaba/quran_data/-/raw/main/traductions/trad_albanian_nahi.csv.zip
trad_bosnian_rwwad|Bosnian translation - Rowwad Translation Center|bs|TEXT|https://gitlab.com/redabourebaba/quran_data/-/raw/main/traductions/trad_bosnian_rwwad.csv.zip
trad_bosnian_mihanovich|Bosnian Translation - Muhammad Mihanovich|bs|TEXT|https://gitlab.com/redabourebaba/quran_data/-/raw/main/traductions/trad_bosnian_mihanovich.csv.zip
trad_serbian_rwwad|Serbian Translation - Rowwad Translation Center|sr|TEXT|https://gitlab.com/redabourebaba/quran_data/-/raw/main/traductions/trad_serbian_rwwad.csv.zip
trad_lithuanian_rwwad|Lithuanian Translation|lt|TEXT|https://gitlab.com/redabourebaba/quran_data/-/raw/main/traductions/trad_lithuanian_rwwad.csv.zip
trad_uzbek_rwwad|Uzbek Translation - Rowwad Translation Center|uz|TEXT|https://gitlab.com/redabourebaba/quran_data/-/raw/main/traductions/trad_uzbek_rwwad.csv.zip
trad_uzbek_mansour|Uzbek translation - Alauddin Mansour|uz|TEXT|https://gitlab.com/redabourebaba/quran_data/-/raw/main/traductions/trad_uzbek_mansour.csv.zip
trad_tajik_arifi|Tajik translation - Arfy|tg|TEXT|https://gitlab.com/redabourebaba/quran_data/-/raw/main/traductions/trad_tajik_arifi.csv.zip
trad_kyrgyz_hakimov|Kyrgyz translation|ky|TEXT|https://gitlab.com/redabourebaba/quran_data/-/raw/main/traductions/trad_kyrgyz_hakimov.csv.zip
trad_indonesian_sabiq|Indonesian Translation - Sabeq Company|id|TEXT|https://gitlab.com/redabourebaba/quran_data/-/raw/main/traductions/trad_indonesian_sabiq.csv.zip
trad_indonesian_affairs|Indonesian Translation - Ministry of Islamic Affairs|id|TEXT|https://gitlab.com/redabourebaba/quran_data/-/raw/main/traductions/trad_indonesian_affairs.csv.zip
trad_indonesian_complex|Indonesian Translation - King Fahd Complex|id|TEXT|https://gitlab.com/redabourebaba/quran_data/-/raw/main/traductions/trad_indonesian_complex.csv.zip
trad_tagalog_rwwad|Filipino (Tagalog) Translation|tl|TEXT|https://gitlab.com/redabourebaba/quran_data/-/raw/main/traductions/trad_tagalog_rwwad.csv.zip
trad_chinese_makin|Chinese Translation - Muhammad Makin|zh|TEXT|https://gitlab.com/redabourebaba/quran_data/-/raw/main/traductions/trad_chinese_makin.csv.zip
trad_chinese_suliman|Chinese Translation - Mohammed Suleiman|zh|TEXT|https://gitlab.com/redabourebaba/quran_data/-/raw/main/traductions/trad_chinese_suliman.csv.zip
trad_uyghur_saleh|Uyghur translation - Sh. Muhammad Saleh|ug|TEXT|https://gitlab.com/redabourebaba/quran_data/-/raw/main/traductions/trad_uyghur_saleh.csv.zip
trad_japanese_saeedsato|Japanese translation - Saeed Sato|ja|TEXT|https://gitlab.com/redabourebaba/quran_data/-/raw/main/traductions/trad_japanese_saeedsato.csv.zip
trad_vietnamese_rwwad|Vietnamese translation - Rowwad Translation Center|vi|TEXT|https://gitlab.com/redabourebaba/quran_data/-/raw/main/traductions/trad_vietnamese_rwwad.csv.zip
trad_khmer_cambodia|Khmer translation|km|TEXT|https://gitlab.com/redabourebaba/quran_data/-/raw/main/traductions/trad_khmer_cambodia.csv.zip
trad_persian_ih|Persian Translation - Rowwad Translation Center|fa|TEXT|https://gitlab.com/redabourebaba/quran_data/-/raw/main/traductions/trad_persian_ih.csv.zip
trad_kurdish_bamoki|Kurdish Translation|ku|TEXT|https://gitlab.com/redabourebaba/quran_data/-/raw/main/traductions/trad_kurdish_bamoki.csv.zip
trad_urdu_junagarhi|Urdu Translation|ur|TEXT|https://gitlab.com/redabourebaba/quran_data/-/raw/main/traductions/trad_urdu_junagarhi.csv.zip
trad_hindi_omari|Hindi Translation|hi|TEXT|https://gitlab.com/redabourebaba/quran_data/-/raw/main/traductions/trad_hindi_omari.csv.zip
trad_telugu_muhammad|Telugu translation - Abder-Rahim ibn Muhammad|te|TEXT|https://gitlab.com/redabourebaba/quran_data/-/raw/main/traductions/trad_telugu_muhammad.csv.zip
trad_gujarati_omari|Gujarati translation|gu|TEXT|https://gitlab.com/redabourebaba/quran_data/-/raw/main/traductions/trad_gujarati_omari.csv.zip
trad_malayalam_kunhi|Malayalam translation - Abdul-Hamid Haidar Al-Madany and Kanhi Muhammad|ml|TEXT|https://gitlab.com/redabourebaba/quran_data/-/raw/main/traductions/trad_malayalam_kunhi.csv.zip
trad_assamese_rafeeq|Assamese translation|as|TEXT|https://gitlab.com/redabourebaba/quran_data/-/raw/main/traductions/trad_assamese_rafeeq.csv.zip
trad_punjabi_arif|Punjabi translation|pa|TEXT|https://gitlab.com/redabourebaba/quran_data/-/raw/main/traductions/trad_punjabi_arif.csv.zip
trad_tamil_omar|Tamil Translation - Omar Sharif|ta|TEXT|https://gitlab.com/redabourebaba/quran_data/-/raw/main/traductions/trad_tamil_omar.csv.zip
trad_tamil_baqavi|Tamil Translation - Abdulhamid Albaqoi|ta|TEXT|https://gitlab.com/redabourebaba/quran_data/-/raw/main/traductions/trad_tamil_baqavi.csv.zip
trad_sinhalese_mahir|Sinhalese translation|si|TEXT|https://gitlab.com/redabourebaba/quran_data/-/raw/main/traductions/trad_sinhalese_mahir.csv.zip
trad_swahili_barawani|Swahili translation - Ali Muhsen Alberwany|sw|TEXT|https://gitlab.com/redabourebaba/quran_data/-/raw/main/traductions/trad_swahili_barawani.csv.zip
trad_somali_yacob|Somali translation - Jacob|so|TEXT|https://gitlab.com/redabourebaba/quran_data/-/raw/main/traductions/trad_somali_yacob.csv.zip
trad_amharic_sadiq|Amharic translation|am|TEXT|https://gitlab.com/redabourebaba/quran_data/-/raw/main/traductions/trad_amharic_sadiq.csv.zip
trad_yoruba_mikail|Yoruba translation|yo|TEXT|https://gitlab.com/redabourebaba/quran_data/-/raw/main/traductions/trad_yoruba_mikail.csv.zip
trad_hausa_gummi|Hausa language - Abu Bakr Jomy|ha|TEXT|https://gitlab.com/redabourebaba/quran_data/-/raw/main/traductions/trad_hausa_gummi.csv.zip
trad_oromo_ababor|Oromo translation|or|TEXT|https://gitlab.com/redabourebaba/quran_data/-/raw/main/traductions/trad_oromo_ababor.csv.zip
trad_afar_hamza|Afar translation|aa|TEXT|https://gitlab.com/redabourebaba/quran_data/-/raw/main/traductions/trad_afar_hamza.csv.zip
trad_ankobambara_dayyan|N'ko translation - Baba Mamadi|nk|TEXT|https://gitlab.com/redabourebaba/quran_data/-/raw/main/traductions/trad_ankobambara_dayyan.csv.zip
trad_kinyarwanda_assoc|Kinyarwanda Translation|rw|TEXT|https://gitlab.com/redabourebaba/quran_data/-/raw/main/traductions/trad_kinyarwanda_assoc.csv.zip
trad_lingala_zakaria|Lingala translation|cd|TEXT|https://gitlab.com/redabourebaba/quran_data/-/raw/main/traductions/trad_lingala_zakaria.csv.zip
